{
  "version": "0.0.0",
  "name": "balancer",
  "instructions": [
    {
      "name": "initializeTreasury",
      "accounts": [
        {
          "name": "authority",
          "isMut": false,
          "isSigner": true
        },
        {
          "name": "treasuryData",
          "isMut": true,
          "isSigner": false
        },
        {
          "name": "treasury",
          "isMut": false,
          "isSigner": false
        },
        {
          "name": "devRoyaltyAccount",
          "isMut": false,
          "isSigner": false
        },
        {
          "name": "systemProgram",
          "isMut": false,
          "isSigner": false
        }
      ],
      "args": []
    },
    {
      "name": "addValidMint",
      "accounts": [
        {
          "name": "authority",
          "isMut": false,
          "isSigner": true
        },
        {
          "name": "mint",
          "isMut": false,
          "isSigner": false
        },
        {
          "name": "mintCheck",
          "isMut": true,
          "isSigner": false
        },
        {
          "name": "treasuryData",
          "isMut": true,
          "isSigner": false
        },
        {
          "name": "systemProgram",
          "isMut": false,
          "isSigner": false
        }
      ],
      "args": []
    },
    {
      "name": "freezeAddingMints",
      "accounts": [
        {
          "name": "authority",
          "isMut": false,
          "isSigner": true
        },
        {
          "name": "treasuryData",
          "isMut": true,
          "isSigner": false
        }
      ],
      "args": []
    },
    {
      "name": "sellNft",
      "accounts": [
        {
          "name": "seller",
          "isMut": false,
          "isSigner": true
        },
        {
          "name": "sellerDepositTokenAccount",
          "isMut": true,
          "isSigner": false
        },
        {
          "name": "sellerCurrentTokenAccount",
          "isMut": true,
          "isSigner": false
        },
        {
          "name": "mint",
          "isMut": false,
          "isSigner": false
        },
        {
          "name": "mintCheck",
          "isMut": true,
          "isSigner": false
        },
        {
          "name": "treasuryData",
          "isMut": true,
          "isSigner": false
        },
        {
          "name": "treasury",
          "isMut": true,
          "isSigner": false
        },
        {
          "name": "devRoyaltyAccount",
          "isMut": true,
          "isSigner": false
        },
        {
          "name": "systemProgram",
          "isMut": false,
          "isSigner": false
        },
        {
          "name": "tokenProgram",
          "isMut": false,
          "isSigner": false
        }
      ],
      "args": []
    },
    {
      "name": "withdrawNft",
      "accounts": [
        {
          "name": "authority",
          "isMut": false,
          "isSigner": true
        },
        {
          "name": "mint",
          "isMut": false,
          "isSigner": false
        },
        {
          "name": "mintCheck",
          "isMut": true,
          "isSigner": false
        },
        {
          "name": "treasuryData",
          "isMut": true,
          "isSigner": false
        },
        {
          "name": "withdrawFromTokenAccount",
          "isMut": true,
          "isSigner": false
        },
        {
          "name": "withdrawToTokenAccount",
          "isMut": true,
          "isSigner": false
        },
        {
          "name": "systemProgram",
          "isMut": false,
          "isSigner": false
        },
        {
          "name": "tokenProgram",
          "isMut": false,
          "isSigner": false
        }
      ],
      "args": []
    }
  ],
  "accounts": [
    {
      "name": "treasuryData",
      "type": {
        "kind": "struct",
        "fields": [
          {
            "name": "treasuryInitialized",
            "type": "bool"
          },
          {
            "name": "paused",
            "type": "bool"
          },
          {
            "name": "authority",
            "type": "publicKey"
          },
          {
            "name": "treasury",
            "type": "publicKey"
          },
          {
            "name": "nftHeldCount",
            "type": "u64"
          },
          {
            "name": "nftCollectionCount",
            "type": "u64"
          },
          {
            "name": "devRoyaltyAccount",
            "type": "publicKey"
          }
        ]
      }
    },
    {
      "name": "mintCheck",
      "type": {
        "kind": "struct",
        "fields": [
          {
            "name": "isValid",
            "type": "bool"
          },
          {
            "name": "mint",
            "type": "publicKey"
          },
          {
            "name": "isHeld",
            "type": "bool"
          },
          {
            "name": "heldTokenAccount",
            "type": "publicKey"
          }
        ]
      }
    }
  ]
}